<?xml version="1.0" encoding="UTF-8"?>
<testsuite xmlns:xsi="http://www.w3.org/2001/XMLSchema-instance" xsi:noNamespaceSchemaLocation="https://maven.apache.org/surefire/maven-surefire-plugin/xsd/surefire-test-report.xsd" name="com.afpa.id.easyMock.MathAppTest" time="0.039" tests="3" errors="0" skipped="0" failures="0">
  <properties>
    <property name="sun.desktop" value="windows"/>
    <property name="awt.toolkit" value="sun.awt.windows.WToolkit"/>
    <property name="file.encoding.pkg" value="sun.io"/>
    <property name="java.specification.version" value="1.8"/>
    <property name="sun.cpu.isalist" value="amd64"/>
    <property name="sun.jnu.encoding" value="Cp1252"/>
    <property name="java.class.path" value="C:\Users\59013-57-06\Documents\Workspace\easyMock\target\test-classes;C:\Users\59013-57-06\Documents\Workspace\easyMock\target\classes;C:\Users\59013-57-06\.m2\repository\org\junit\jupiter\junit-jupiter-api\5.5.2\junit-jupiter-api-5.5.2.jar;C:\Users\59013-57-06\.m2\repository\org\apiguardian\apiguardian-api\1.1.0\apiguardian-api-1.1.0.jar;C:\Users\59013-57-06\.m2\repository\org\opentest4j\opentest4j\1.2.0\opentest4j-1.2.0.jar;C:\Users\59013-57-06\.m2\repository\org\junit\platform\junit-platform-commons\1.5.2\junit-platform-commons-1.5.2.jar;C:\Users\59013-57-06\.m2\repository\org\junit\jupiter\junit-jupiter-engine\5.5.2\junit-jupiter-engine-5.5.2.jar;C:\Users\59013-57-06\.m2\repository\org\junit\platform\junit-platform-engine\1.5.2\junit-platform-engine-1.5.2.jar;C:\Users\59013-57-06\.m2\repository\org\easymock\easymock\4.0.2\easymock-4.0.2.jar;C:\Users\59013-57-06\.m2\repository\org\objenesis\objenesis\3.0.1\objenesis-3.0.1.jar;"/>
    <property name="java.vm.vendor" value="Oracle Corporation"/>
    <property name="sun.arch.data.model" value="64"/>
    <property name="user.variant" value=""/>
    <property name="java.vendor.url" value="http://java.oracle.com/"/>
    <property name="user.timezone" value="Europe/Paris"/>
    <property name="java.vm.specification.version" value="1.8"/>
    <property name="os.name" value="Windows 10"/>
    <property name="user.country" value="FR"/>
    <property name="sun.java.launcher" value="SUN_STANDARD"/>
    <property name="sun.boot.library.path" value="C:\outils\Java\jdk1.8.0_211\jre\bin"/>
    <property name="sun.java.command" value="C:\Users\59677C~1\AppData\Local\Temp\surefire7388551736381663647\surefirebooter1479820736990333623.jar C:\Users\59013-57-06\AppData\Local\Temp\surefire7388551736381663647 2019-10-17T14-13-04_891-jvmRun1 surefire6276250385412883501tmp surefire_01281169773832948168tmp"/>
    <property name="surefire.test.class.path" value="C:\Users\59013-57-06\Documents\Workspace\easyMock\target\test-classes;C:\Users\59013-57-06\Documents\Workspace\easyMock\target\classes;C:\Users\59013-57-06\.m2\repository\org\junit\jupiter\junit-jupiter-api\5.5.2\junit-jupiter-api-5.5.2.jar;C:\Users\59013-57-06\.m2\repository\org\apiguardian\apiguardian-api\1.1.0\apiguardian-api-1.1.0.jar;C:\Users\59013-57-06\.m2\repository\org\opentest4j\opentest4j\1.2.0\opentest4j-1.2.0.jar;C:\Users\59013-57-06\.m2\repository\org\junit\platform\junit-platform-commons\1.5.2\junit-platform-commons-1.5.2.jar;C:\Users\59013-57-06\.m2\repository\org\junit\jupiter\junit-jupiter-engine\5.5.2\junit-jupiter-engine-5.5.2.jar;C:\Users\59013-57-06\.m2\repository\org\junit\platform\junit-platform-engine\1.5.2\junit-platform-engine-1.5.2.jar;C:\Users\59013-57-06\.m2\repository\org\easymock\easymock\4.0.2\easymock-4.0.2.jar;C:\Users\59013-57-06\.m2\repository\org\objenesis\objenesis\3.0.1\objenesis-3.0.1.jar;"/>
    <property name="sun.cpu.endian" value="little"/>
    <property name="user.home" value="C:\Users\59013-57-06"/>
    <property name="user.language" value="fr"/>
    <property name="java.specification.vendor" value="Oracle Corporation"/>
    <property name="java.home" value="C:\outils\Java\jdk1.8.0_211\jre"/>
    <property name="basedir" value="C:\Users\59013-57-06\Documents\Workspace\easyMock"/>
    <property name="file.separator" value="\"/>
    <property name="line.separator" value="&#10;"/>
    <property name="java.vm.specification.vendor" value="Oracle Corporation"/>
    <property name="java.specification.name" value="Java Platform API Specification"/>
    <property name="java.awt.graphicsenv" value="sun.awt.Win32GraphicsEnvironment"/>
    <property name="surefire.real.class.path" value="C:\Users\59677C~1\AppData\Local\Temp\surefire7388551736381663647\surefirebooter1479820736990333623.jar"/>
    <property name="sun.boot.class.path" value="C:\outils\Java\jdk1.8.0_211\jre\lib\resources.jar;C:\outils\Java\jdk1.8.0_211\jre\lib\rt.jar;C:\outils\Java\jdk1.8.0_211\jre\lib\sunrsasign.jar;C:\outils\Java\jdk1.8.0_211\jre\lib\jsse.jar;C:\outils\Java\jdk1.8.0_211\jre\lib\jce.jar;C:\outils\Java\jdk1.8.0_211\jre\lib\charsets.jar;C:\outils\Java\jdk1.8.0_211\jre\lib\jfr.jar;C:\outils\Java\jdk1.8.0_211\jre\classes"/>
    <property name="user.script" value=""/>
    <property name="sun.management.compiler" value="HotSpot 64-Bit Tiered Compilers"/>
    <property name="java.runtime.version" value="1.8.0_211-b12"/>
    <property name="user.name" value="59013-57-06"/>
    <property name="path.separator" value=";"/>
    <property name="os.version" value="10.0"/>
    <property name="java.endorsed.dirs" value="C:\outils\Java\jdk1.8.0_211\jre\lib\endorsed"/>
    <property name="java.runtime.name" value="Java(TM) SE Runtime Environment"/>
    <property name="file.encoding" value="Cp1252"/>
    <property name="java.vm.name" value="Java HotSpot(TM) 64-Bit Server VM"/>
    <property name="localRepository" value="C:\Users\59013-57-06\.m2\repository"/>
    <property name="java.vendor.url.bug" value="http://bugreport.sun.com/bugreport/"/>
    <property name="java.io.tmpdir" value="C:\Users\59677C~1\AppData\Local\Temp\"/>
    <property name="java.version" value="1.8.0_211"/>
    <property name="user.dir" value="C:\Users\59013-57-06\Documents\Workspace\easyMock"/>
    <property name="os.arch" value="amd64"/>
    <property name="java.vm.specification.name" value="Java Virtual Machine Specification"/>
    <property name="java.awt.printerjob" value="sun.awt.windows.WPrinterJob"/>
    <property name="sun.os.patch.level" value=""/>
    <property name="java.library.path" value="C:\outils\Java\jdk1.8.0_211\jre\bin;C:\Windows\Sun\Java\bin;C:\Windows\system32;C:\Windows;C:/outils/Java/jdk1.8.0_211/jre/bin/server;C:/outils/Java/jdk1.8.0_211/jre/bin;C:/outils/Java/jdk1.8.0_211/jre/lib/amd64;C:\Program Files (x86)\Common Files\Oracle\Java\javapath;C:\Windows\system32;C:\Windows;C:\Windows\System32\Wbem;C:\Windows\System32\WindowsPowerShell\v1.0\;C:\Windows\System32\OpenSSH\;C:\outils\Git\cmd;C:\outils\Java\bin;C:\outils\PuTTY\;C:\Users\59013-57-06\AppData\Local\Microsoft\WindowsApps;C:\outils\nc111nt;C:\outils\apache-maven-3.6.2\bin;C:\outils\Java\jdk1.8.0_211\bin;;C:\outils\eclipse\jee-2019-09;;."/>
    <property name="java.vm.info" value="mixed mode"/>
    <property name="java.vendor" value="Oracle Corporation"/>
    <property name="java.vm.version" value="25.211-b12"/>
    <property name="java.ext.dirs" value="C:\outils\Java\jdk1.8.0_211\jre\lib\ext;C:\Windows\Sun\Java\lib\ext"/>
    <property name="sun.io.unicode.encoding" value="UnicodeLittle"/>
    <property name="java.class.version" value="52.0"/>
  </properties>
  <testcase name="testDivide" classname="com.afpa.id.easyMock.MathAppTest" time="0.031"/>
  <testcase name="testMultiply" classname="com.afpa.id.easyMock.MathAppTest" time="0"/>
  <testcase name="testAddAndSubstract" classname="com.afpa.id.easyMock.MathAppTest" time="0"/>
</testsuite>